# bin_4
0.000000000000000000e+00
7.512450910840162352e-03
1.153676407302537017e-02
8.562827059189877243e-03
9.565979261624644320e-03
1.189388176289526457e-02
1.445568662789859654e-02
8.032876622947413697e-03
1.097650182260473915e-02
2.101359470703462184e-02
2.303327020530683902e-02
3.809055197222530748e-02
1.445858898710800644e-01
5.569892514778250758e-01
1.737224372570931097e+00
3.262609114359154461e+00
3.823584947185880711e+00
3.259927462528554809e+00
2.150841436073466895e+00
1.331788920165209111e+00
7.574540013320555376e-01
4.213785929824155896e-01
2.368864761572075373e-01
1.547957331654510327e-01
1.255464935066676335e-01
1.061364917157047172e-01
1.128422851742578864e-01
1.409680613790210701e-01
1.775376101655302130e-01
2.007800297730775174e-01
2.080648599037694113e-01
1.972251886510950902e-01
1.741655502036091596e-01
1.456373947146778758e-01
1.157241117360680721e-01
8.722192081208937631e-02
6.279760175540725908e-02
4.473998271275084204e-02
3.168177118034781053e-02
2.238558095918167373e-02
1.566384396552307490e-02
1.080930340398029987e-02
7.227605167256880014e-03
4.639551047653543009e-03
2.822198575315813373e-03
1.637105044420666174e-03
9.167471505078100824e-04
5.047857125435710208e-04
2.817578529482885432e-04
1.804206317491582868e-04
1.275243403824094404e-04
9.525175270241462492e-05
7.441802821952039383e-05
6.057182501820135235e-05
5.087151787109460091e-05
4.205485045257860709e-05
3.576292049504162040e-05
3.320537139434002354e-05
3.309826313260966896e-05
3.515509180202234856e-05
3.872943522264832051e-05
4.291893985294082590e-05
4.494592442484856345e-05
4.421686620032060907e-05
4.287001028497669503e-05
4.084124747486146261e-05
3.762120114954666970e-05
3.446238110952413016e-05
3.231326473604616186e-05
3.063579660039723917e-05
2.907725429151807557e-05
0.000000000000000000e+00
