# ximinus_6_4
0.000000000000000000e+00
0.000000000000000000e+00
0.000000000000000000e+00
0.000000000000000000e+00
0.000000000000000000e+00
0.000000000000000000e+00
0.000000000000000000e+00
0.000000000000000000e+00
0.000000000000000000e+00
0.000000000000000000e+00
0.000000000000000000e+00
0.000000000000000000e+00
0.000000000000000000e+00
5.221433902773721787e-05
5.164199547468642943e-05
5.094048098213293699e-05
5.011227332828005053e-05
3.698794060153566847e-05
3.588901796598010482e-05
3.470833073989974891e-05
3.345585575338339511e-05
3.922121296785086318e-05
3.787584871589525767e-05
3.163023026202174405e-05
3.016682199523058525e-05
3.229663099542985394e-05
3.082357274675908381e-05
2.650444323198116622e-05
2.732439699014515514e-05
2.587873884137437486e-05
2.252784108059220357e-05
2.277915563894741881e-05
2.002035611523246135e-05
1.997040443380619466e-05
1.763344587669549493e-05
1.744326444309281216e-05
1.543882094839355826e-05
1.446043841810880550e-05
1.414916871019685065e-05
1.317958661578707596e-05
1.178218193517546017e-05
1.101357392979068882e-05
1.029894154602900952e-05
9.637361495512227952e-06
9.338214920582230680e-06
8.741854763716207455e-06
7.944729008643638862e-06
7.682026421443051927e-06
7.211558989591948032e-06
6.615883779165622228e-06
