# ximinus_2_2
0.000000000000000000e+00
0.000000000000000000e+00
0.000000000000000000e+00
0.000000000000000000e+00
0.000000000000000000e+00
0.000000000000000000e+00
0.000000000000000000e+00
0.000000000000000000e+00
0.000000000000000000e+00
0.000000000000000000e+00
0.000000000000000000e+00
0.000000000000000000e+00
0.000000000000000000e+00
9.864912447030954110e-06
9.914180893517235505e-06
9.944018011298624225e-06
9.953274143085317363e-06
7.820295602632339148e-06
7.753191280551361984e-06
7.665598284170022436e-06
7.557386381632481506e-06
8.662017803882328520e-06
8.531935520634262182e-06
7.545490829712116362e-06
7.360409508240138975e-06
7.777615684787010934e-06
7.567782047080303363e-06
6.853602764667595140e-06
6.998680490915415363e-06
6.746102899732085618e-06
6.151995087616270888e-06
6.157359088538409235e-06
5.638628666219905965e-06
5.567759584967833618e-06
5.098920327757083285e-06
4.985554140486198018e-06
4.556952022125630631e-06
4.297423046645337133e-06
4.146674541499872591e-06
3.881522783881759791e-06
3.542728499023745002e-06
3.310933133311528711e-06
3.089474431317545369e-06
2.879246050441421343e-06
2.733842517933633542e-06
2.541876878874825738e-06
2.320177624486329021e-06
2.194199588303878875e-06
2.038199259152541090e-06
1.866548390489838761e-06
