# xiplus_6_4
2.966673168315489767e-04
2.832400563004442654e-04
2.700134959707729604e-04
2.570299295848722755e-04
2.443108506919593366e-04
2.318884427666769463e-04
2.197850333306703200e-04
2.080270665911840972e-04
1.966351844603251241e-04
1.466210501217884651e-04
1.362480798031837287e-04
1.263874852480287379e-04
1.170507754324607815e-04
1.082465138855176419e-04
1.158716281541710013e-04
1.081436951176518589e-04
1.009012013929915186e-04
9.412640286231113739e-05
7.871028637026515813e-05
7.279686741838074749e-05
6.731932597094532876e-05
6.831639336796706654e-05
6.366675587774071248e-05
5.497159967033673594e-05
5.097576508961550136e-05
5.066796829707136395e-05
4.728722875287222485e-05
4.145676863009671505e-05
3.854729391800828777e-05
3.808759007625972168e-05
3.372495160788108127e-05
3.300378857190916959e-05
2.945091002132653479e-05
2.864704509166609368e-05
2.566386348554151032e-05
2.485332146888246611e-05
2.229154939593183500e-05
2.077374968994900468e-05
1.994038387407089271e-05
1.846875866202233400e-05
1.657996187455880124e-05
1.532252014174795418e-05
1.412353643663703061e-05
1.298087975280019363e-05
1.220409925320406666e-05
1.113691926264091408e-05
9.876599203001756096e-06
9.159099391264903750e-06
8.056517248417742843e-06
7.225042460302139762e-06
