# xiplus_2_1
3.976042813815296726e-05
3.840519505072064035e-05
3.704819465481514292e-05
3.568922055415494628e-05
3.433234394662356521e-05
3.298015915223256373e-05
3.163409860967682973e-05
3.029894232725507597e-05
2.897574461232873167e-05
2.405291956171726141e-05
2.272315811555865653e-05
2.142019087104992406e-05
2.014722692432625574e-05
1.890751756240973926e-05
1.911213293253891113e-05
1.796960468466795866e-05
1.686751412163120954e-05
1.580707837555211115e-05
1.399315130446832164e-05
1.300839300312462985e-05
1.207057689083259095e-05
1.170942565547103043e-05
1.087747989022187619e-05
9.713317933754706747e-06
8.969832973331123962e-06
8.564826941836544918e-06
7.920089080824519633e-06
7.086487419438433608e-06
6.525133292984038477e-06
6.199088008116816204e-06
5.560328908834475032e-06
5.255545978543215400e-06
4.730538239018455337e-06
4.460546493273522919e-06
4.024226657702626509e-06
3.791392655339188799e-06
3.425837543979059772e-06
3.165082521527520687e-06
2.976528471254797937e-06
2.746021202199913421e-06
2.491169681478968749e-06
2.300197435110374881e-06
2.122773006094216687e-06
1.957595865760344884e-06
1.830146496089309203e-06
1.683297668969090239e-06
1.524402987895414729e-06
1.415653053672218381e-06
1.277109617585180195e-06
1.164232596280420511e-06
