# bin_3_2
# note = no ell^2 prefactor
1.512162438520656037e-08
1.465159878341685408e-08
1.418333570484774805e-08
1.371793284029223323e-08
1.325643407330309062e-08
1.279982503344042163e-08
1.234901460614960639e-08
1.190483455454335314e-08
1.146802927212130179e-08
1.103926179320781272e-08
1.061909588308628874e-08
1.020800721255208708e-08
9.806378334471602329e-09
9.414511216418886609e-09
9.032613552127757300e-09
8.660827900607589303e-09
8.299215485601622373e-09
7.947785101850198306e-09
7.606489290305159547e-09
7.275242983458071392e-09
6.953934029808998782e-09
6.642436678311035085e-09
6.340618032733021786e-09
6.048363463950522473e-09
5.765567867127551008e-09
5.492153305323276702e-09
5.228071964935873739e-09
4.973301499487404697e-09
4.727843355912078953e-09
4.491720313561755976e-09
4.264969807493764121e-09
4.047621285865724297e-09
3.839692002398149024e-09
3.641169445250057174e-09
3.452000166307753815e-09
3.272079100486660814e-09
3.101246743599974163e-09
2.939281117974016131e-09
2.785901855425325681e-09
2.640778019696934180e-09
2.503533644467914356e-09
2.373766357382367597e-09
2.251063341617719471e-09
2.135014985596951670e-09
2.025235771924196954e-09
1.921372516445573486e-09
1.823104347809784332e-09
1.730148309459361975e-09
1.642254970127483631e-09
1.559197986141679408e-09
1.480763569955001730e-09
1.406742071937235035e-09
1.336916969872408339e-09
1.271064129774989861e-09
1.208951847765168727e-09
1.150346677160664248e-09
1.095019007644804980e-09
1.042750682430222800e-09
9.933396942459830892e-10
9.466014251374313624e-10
9.023684499185982720e-10
8.604866708799032918e-10
8.208109971480384019e-10
7.832026883006576585e-10
7.475277458400836863e-10
7.136582104664339980e-10
6.814736672382355681e-10
6.508625740429632583e-10
6.217227003783034348e-10
5.939598248841932981e-10
5.674871296757727108e-10
5.422233512891967064e-10
5.180925398686114171e-10
4.950247783342275148e-10
4.729552975948448172e-10
4.518251741175208564e-10
4.315801398554165587e-10
4.121702192483965869e-10
3.935499548010301892e-10
3.756771864442651162e-10
3.585137927417600000e-10
3.420245842200751067e-10
3.261776109578270775e-10
3.109435117828892576e-10
2.962952634800055290e-10
2.822084843696158640e-10
2.686605044736202117e-10
2.556307844879165302e-10
2.431001961913407336e-10
2.310513379691876544e-10
2.194677829037560225e-10
2.083345921800228652e-10
1.976377937360741784e-10
1.873640688512147417e-10
1.775012134015226750e-10
1.680372611677763306e-10
1.589611821263603012e-10
1.502623765789818982e-10
1.419303495566145735e-10
1.339553571242857194e-10
1.263274488020895024e-10
1.190372945126819540e-10
1.120755563510599716e-10
1.054332614265751613e-10
9.910101304746360632e-11
9.306995471978867850e-11
8.733131044356008475e-11
8.187584311863378173e-11
7.669484912354461691e-11
7.177943906616497760e-11
6.712076461650656227e-11
6.271017825197143663e-11
5.853852402385124884e-11
5.459721626277964131e-11
5.087750477173771718e-11
4.737070972136666293e-11
4.406822445773882752e-11
4.096150307399778916e-11
3.804212330562736762e-11
3.530174388894237116e-11
3.273216160528597518e-11
3.032531706649813972e-11
2.807329487010932958e-11
2.596836674608576608e-11
2.400296952554165344e-11
2.216974502923833136e-11
2.046154390594956350e-11
1.887120444418674989e-11
1.739247670853076448e-11
1.601865974793220698e-11
1.474352244145561683e-11
1.356083523598233914e-11
1.246534300835800738e-11
1.145131165813705419e-11
1.051324032275164386e-11
9.646647776221338460e-12
8.846525476323549244e-12
8.108102133015839537e-12
7.427639808808255300e-12
6.800561541929047242e-12
6.223608252516813511e-12
5.692634490410218814e-12
5.204539027762435287e-12
4.756456179853051209e-12
4.344823283559583726e-12
3.967151876327486736e-12
3.621157195956141672e-12
3.303798715489923672e-12
3.013119679803133888e-12
2.747018040827814469e-12
