# bin_5_1
# note = no ell^2 prefactor
1.043170512532428566e-08
1.009884410612595063e-08
9.769242000722624034e-09
9.443406141391414089e-09
9.121796889973204804e-09
8.804832440063038396e-09
8.492881185634217517e-09
8.186268351355937613e-09
7.885274108735601818e-09
7.590145778771975226e-09
7.301086255037874562e-09
7.018269453396736362e-09
6.741838576636774038e-09
6.471920060433923212e-09
6.208612417156293420e-09
5.952009686221831117e-09
5.702186340737646133e-09
5.459216886854076718e-09
5.223166161058407086e-09
4.994096259778012680e-09
4.772064498185061044e-09
4.557123355365467658e-09
4.349314143214940004e-09
4.148676275860929830e-09
3.955230178516516686e-09
3.768982675378148482e-09
3.589921418366691829e-09
3.418007854814267684e-09
3.253174819399383963e-09
3.095327800957028140e-09
2.944346945963336206e-09
2.800079927617798016e-09
2.662351064580733686e-09
2.530962696030681339e-09
2.405699890112940968e-09
2.286336404021044771e-09
2.172642760740324525e-09
2.064388203254988785e-09
1.961347243958420051e-09
1.863303169207877188e-09
1.770047282322852391e-09
1.681382045221890319e-09
1.597120628197596892e-09
1.517084119447622691e-09
1.441104516751945654e-09
1.369021096749784689e-09
1.300675294921607814e-09
1.235912046663540899e-09
1.174578838268476776e-09
1.116522480001940640e-09
1.061588169968630382e-09
1.009619899286373960e-09
9.604586900471548437e-10
9.139456391383863902e-10
8.699227407535513383e-10
8.282361908259216553e-10
7.887383192290044620e-10
7.512904257784370603e-10
7.157646133183181370e-10
6.820442024526667709e-10
6.500242613929230878e-10
6.196096817255409595e-10
5.907126429367283625e-10
5.632502058682302539e-10
5.371419213211891492e-10
5.123090220335864575e-10
4.886743348567033722e-10
4.661634013035796933e-10
4.447063637338286880e-10
4.242390505482831573e-10
4.047039847185091213e-10
3.860492607178617024e-10
3.682271878674469789e-10
3.511933520710420714e-10
3.349048798085940521e-10
3.193212801599829386e-10
3.044044196727914889e-10
2.901192412482291440e-10
2.764344033101011042e-10
2.633209729201333736e-10
2.507526538806939119e-10
2.387044368017205769e-10
2.271530312047965398e-10
2.160765546048733217e-10
2.054546606695881273e-10
1.952689356905051986e-10
1.855019978304567535e-10
1.761378337604641614e-10
1.671611860338797869e-10
1.585579910294975740e-10
1.503146771133394096e-10
1.424187643627514708e-10
1.348584112656781929e-10
1.276221202185368303e-10
1.206992876515115060e-10
1.140793467234425792e-10
1.077525095553490917e-10
1.017093138192735295e-10
9.594030490885070195e-11
9.043674294263609761e-11
8.518965473394639667e-11
8.019068043762389817e-11
7.543148453701313251e-11
7.090411913549293561e-11
6.660028872436933215e-11
6.251229508258940807e-11
5.863259657768107900e-11
5.495329213267787874e-11
5.146709148539395718e-11
4.816663106474402803e-11
4.504468448531154711e-11
4.209432148498559627e-11
3.930821516925340093e-11
3.667968634260177203e-11
3.420199157387069718e-11
3.186853560917838004e-11
2.967286899720178490e-11
2.760867116615396736e-11
2.566979452849158794e-11
2.385022450459829127e-11
2.214411664211952507e-11
2.054579507168006491e-11
1.904974359969858842e-11
1.765063279437735478e-11
1.634329503559359547e-11
1.512274724960331155e-11
1.398418760153411008e-11
1.292277181486715111e-11
1.193449905111195727e-11
1.101488663695426094e-11
1.015985350690686903e-11
9.365263541183141679e-12
8.627857896868460155e-12
7.943849286207171547e-12
7.309607939401383298e-12
6.722411736688550786e-12
6.178960051674942781e-12
5.676107651081270858e-12
5.211624012553993584e-12
4.782404818289965657e-12
4.386530121954348411e-12
4.021166892445349113e-12
3.684405875029798789e-12
3.374493102005321948e-12
3.088952894694318691e-12
2.826263814135772981e-12
2.585035677736904758e-12
2.363115040190405846e-12
2.159314204516290646e-12
1.972258953589966402e-12
