# bin_6_1
# note = no ell^2 prefactor
1.095504308857027638e-08
1.061477237600568875e-08
1.027743427379655712e-08
9.943554081474815091e-09
9.613610009557121398e-09
9.288037888121743339e-09
8.967223295889284788e-09
8.651508204127804018e-09
8.341188972280984848e-09
8.036528567746067039e-09
7.737744918533877575e-09
7.445026299724199728e-09
7.158529516525336871e-09
6.878393977949862436e-09
6.604730878494956448e-09
6.337647882308877806e-09
6.077234626715004667e-09
5.823583181509451967e-09
5.576778321090829762e-09
5.336904380681676768e-09
5.104042966309465746e-09
4.878272559137084955e-09
4.659661641531310542e-09
4.448277589313985705e-09
4.244168763898786461e-09
4.047369735292208595e-09
3.857895747537592065e-09
3.675735689393126119e-09
3.500849542787209043e-09
3.333169024051044834e-09
3.172598483700043230e-09
3.019006341879206009e-09
2.872233410756623975e-09
2.732093607041574452e-09
2.598378617543787188e-09
2.470863880164657541e-09
2.349316847657009404e-09
2.233498985383066223e-09
2.123172686107699569e-09
2.018105490910595721e-09
1.918070224957261485e-09
1.822849588187804857e-09
1.732237141597455423e-09
1.646035853439498832e-09
1.564062481447590018e-09
1.486145007636233361e-09
1.412118225955443996e-09
1.341825894288970974e-09
1.275120023624588319e-09
1.211857424187195370e-09
1.151897859853581694e-09
1.095102859988195920e-09
1.041331494755954321e-09
9.904407586430081563e-10
9.422837037105933833e-10
8.967105917784731000e-10
8.535695092595323890e-10
8.127090370228807565e-10
7.739811982623299196e-10
7.372442497216046514e-10
7.023668016555427892e-10
6.692298808251115825e-10
6.377279098302717663e-10
6.077683744109325914e-10
5.792694819005451330e-10
5.521575530752346219e-10
5.263630924466560565e-10
5.018178595934935757e-10
4.784536059969629162e-10
4.562014576573167924e-10
4.349934588411978935e-10
4.147643209532174862e-10
3.954536180602891331e-10
3.770076698817998563e-10
3.593789040472191316e-10
3.425256429497238629e-10
3.264096465435871966e-10
3.109945078535709062e-10
2.962453033012937858e-10
2.821278739813277287e-10
2.686105212709546941e-10
2.556638637591869733e-10
2.432615911733955543e-10
2.313796230886120612e-10
2.199954356592809889e-10
2.090881022900745614e-10
1.986375497161191807e-10
1.886251225975301883e-10
1.790332955184095188e-10
1.698460652575453044e-10
1.610480900758388119e-10
1.526251706772897834e-10
1.445637927716239131e-10
1.368508936063250591e-10
1.294744459353580719e-10
1.224225796013950709e-10
1.156842906143730224e-10
1.092489779164069389e-10
1.031061312373027915e-10
9.724603313524875200e-11
9.165880168146585489e-11
8.633523003128612461e-11
8.126619398811607161e-11
7.644301440886133220e-11
7.185671538646335262e-11
6.749896809088667495e-11
6.336164543259233916e-11
5.943629969164003141e-11
5.571512993253862185e-11
5.219029171945857727e-11
4.885410590530351351e-11
4.569921516542560218e-11
4.271788825733412223e-11
3.990306475499708141e-11
3.724763956898198232e-11
3.474467499575441642e-11
3.238739637714671245e-11
3.016917331518378091e-11
2.808356287650385069e-11
2.612426726363886630e-11
2.428517059187989584e-11
2.256033601944434169e-11
2.094399602143497086e-11
1.943057919156161324e-11
1.801468406952466339e-11
1.669110197706764110e-11
1.545481286226053252e-11
1.430076079311207976e-11
1.322474130677536773e-11
1.222207277034478850e-11
1.128848163987714271e-11
1.041964427971484251e-11
9.612121416790407365e-12
8.861948924332436573e-12
8.165324916889186529e-12
7.519362052443758458e-12
6.920597079709120793e-12
6.365726619474490709e-12
5.852368855847028926e-12
5.377269472803585731e-12
4.938366453092559376e-12
4.532685538735744821e-12
4.158183320214581492e-12
3.812976144681760164e-12
3.494459362142353105e-12
3.200989857063035938e-12
2.931060035677867174e-12
2.682399177594944633e-12
2.453710230078302686e-12
2.243512578195199052e-12
