# rho
# unit = KG/M^3
3.652201236755777843e-25
3.630331909272540432e-25
3.608549859461160190e-25
3.586855343267887654e-25
3.565247848800220371e-25
3.543727376058157423e-25
3.522293413149195898e-25
3.500946216019587252e-25
3.479685528723080028e-25
3.458511095313422312e-25
3.437422659844362189e-25
3.416420222315899658e-25
3.395503270835531348e-25
3.374672061349508715e-25
3.353926081965328388e-25
3.333265588629242282e-25
3.312689813502495111e-25
3.292199012531338330e-25
3.271792929769520485e-25
3.251471309270789659e-25
3.231233895088893477e-25
3.211080687223833319e-25
3.191011685675607806e-25
3.171026122605462569e-25
3.151124509905900522e-25
3.131306079738166377e-25
3.111571088048512509e-25
3.091919022944434629e-25
3.072349884425933195e-25
3.052863672493008208e-25
3.033459875253155837e-25
3.014138492706376542e-25
2.994899524852669862e-25
2.975742459799531968e-25
2.956667297546963779e-25
2.937673782148712919e-25
2.918761657658527474e-25
2.899930924076407902e-25
2.881181581402353745e-25
2.862513117743862090e-25
2.843925277154680563e-25
2.825418315581061080e-25
2.806991721130500269e-25
2.788645493802997670e-25
2.770379121706050372e-25
2.752192860785909372e-25
2.734086455096323673e-25
2.716059648691041359e-25
2.698112185623810516e-25
2.680243809948378768e-25
2.662454777610998951e-25
2.644744576719166773e-25
2.627112951326630779e-25
2.609559901433390510e-25
2.592085171093194968e-25
2.574688760306043696e-25
2.557370157179432862e-25
2.540129617659614840e-25
2.522966629854085801e-25
2.505881193762845284e-25
2.488872797493390838e-25
2.471941952938224916e-25
2.455087892258592688e-25
2.438310359508242242e-25
2.421609866579677406e-25
2.404985389687890980e-25
2.388437440725386335e-25
2.371965507799659639e-25
2.355569590910711354e-25
2.339249178166038106e-25
2.323004525511891352e-25
2.306835121055767262e-25
2.290740964797666295e-25
2.274722056737588451e-25
2.258777629036777984e-25
2.242908193587738725e-25
2.227112982551715387e-25
2.211392251874959427e-25
2.195745745611219388e-25
2.180173207814243814e-25
2.164674382537780330e-25
2.149249013835577023e-25
2.133897357653886265e-25
2.118619030073329956e-25
2.103413647174530909e-25
2.088281208957488667e-25
2.073221587449077502e-25
2.058234526703045497e-25
2.043319770773141198e-25
2.028477319659364375e-25
2.013706917415463111e-25
1.999008436068311680e-25
1.984381491698532668e-25
1.969826212279251573e-25
1.955342341864216709e-25
1.940929496534050434e-25
1.926587676288752747e-25
1.912316753155197920e-25
1.898116471187133808e-25
1.883986574438309186e-25
1.869927062908723364e-25
1.855937680652125115e-25
1.842018171722262526e-25
1.828168408146009637e-25
1.814388389923366449e-25
1.800677605161829362e-25
1.787036181834524332e-25
1.773463863995199674e-25
1.759960395697603244e-25
1.746525648968609772e-25
1.733159367861966885e-25
1.719861552377674811e-25
1.706631946569481865e-25
1.693470294491136132e-25
1.680376468169511884e-25
1.667350467604608891e-25
1.654391780903923783e-25
1.641500536040582286e-25
1.628676349095206988e-25
1.615919092094671701e-25
1.603228765038976655e-25
1.590604856035618019e-25
1.578047621030847938e-25
1.565556548132162583e-25
1.553131509366436224e-25
1.540772376760542904e-25
1.528479022341356666e-25
1.516251318135751781e-25
1.504088880224350377e-25
1.491991708607152454e-25
1.479959547337906555e-25
1.467992396416612452e-25
1.456089743950766543e-25
1.444251717913494556e-25
1.432477934385419307e-25
1.420768393366540567e-25
1.409122838910606421e-25
1.397541015071365182e-25
1.386022921848816851e-25
1.374568175323583785e-25
1.363176775495665984e-25
1.351848594391937489e-25
1.340583248093020658e-25
1.329380608625789763e-25
1.318240548017118617e-25
1.307163066267007449e-25
1.296147651482952658e-25
1.285194303664954244e-25
1.274302894839886250e-25
1.263473169061496991e-25
1.252704998356660278e-25
1.241998254752250843e-25
1.231352554328890354e-25
1.220767897086579271e-25
1.210244155052191405e-25
1.199780944306349345e-25
1.189378264849052858e-25
1.179035988707176219e-25
1.168753731961341784e-25
1.158531494611549322e-25
1.148368892738421421e-25
1.138266054315083808e-25
1.128222595422158840e-25
1.118238388086520790e-25
1.108313176361917741e-25
1.098446960248349465e-25
1.088639483799564735e-25
1.078890491069311176e-25
1.069199982057589248e-25
1.059567636831583942e-25
1.049993263431606666e-25
1.040476733884531232e-25
1.031017920217231914e-25
1.021616630470020003e-25
1.012272608696643469e-25
1.002985790910539565e-25
9.937559211654564886e-26
9.845828075017051893e-26
9.754663859327230327e-26
9.664064005122579886e-26
9.574026592806214651e-26
9.484550342646873898e-26
9.395633335047669411e-26
9.307273650411712973e-26
9.219469369142116369e-26
9.132219851373250958e-26
9.045521897776967801e-26
8.959374868487639404e-26
8.873776204042746616e-26
8.788724624711031010e-26
8.704218210895604368e-26
8.620255042999578475e-26
8.536833841291693754e-26
8.453952686175061990e-26
8.371609658052794967e-26
8.289802837328005615e-26
8.208530944269433212e-26
8.127792059280189541e-26
8.047584262763387534e-26
7.967905635122137827e-26
7.888754896625181991e-26
7.810130127675630663e-26
7.732029408676597923e-26
7.654450820031193258e-26
7.577393082008158240e-26
7.500854275010604654e-26
7.424833119307272923e-26
7.349326415570017551e-26
7.274334163798837390e-26
7.199853804531214435e-26
7.125882778304631831e-26
7.052421085119088430e-26
6.979465525646437588e-26
6.907014820155420875e-26
6.835067049049148929e-26
6.763620932596363321e-26
6.692674551200175836e-26
6.622225985263698256e-26
6.552273315190042366e-26
6.482815261247947442e-26
6.413849903840528711e-26
6.345375323370894514e-26
6.277389600242157783e-26
6.209891454723060088e-26
6.142878967216712067e-26
6.076349578260596864e-26
6.010303287854714477e-26
5.944736896670917115e-26
5.879649124977945202e-26
5.815038053178912817e-26
5.750902401542558089e-26
5.687239610606365310e-26
5.624049040504703543e-26
5.561327491909427292e-26
5.499074324954905622e-26
5.437287620044251463e-26
5.375965457580575452e-26
5.315106237899803694e-26
5.254707721472234799e-26
5.194768628566608044e-26
5.135287039586036360e-26
5.076261354866445277e-26
5.017689654810946580e-26
4.959570339755466947e-26
4.901901490103118160e-26
4.844681506189826324e-26
4.787908468418703224e-26
4.731580777125675536e-26
4.675696512713853896e-26
4.620254075519165558e-26
4.565251545944722303e-26
4.510687324326450238e-26
4.456559811000275464e-26
4.402866766436494873e-26
4.349606910903850035e-26
4.296778324805452736e-26
4.244379088544414184e-26
4.192407602456660485e-26
4.140862266878118889e-26
4.089741162211900606e-26
4.039042368861116847e-26
3.988764607094509757e-26
3.938905637382375652e-26
3.889463860060640637e-26
3.840437355532416494e-26
3.791824844066444797e-26
3.743624406065837328e-26
3.695834121933704724e-26
3.648452072073159342e-26
3.601476976752942181e-26
3.554906596443350704e-26
3.508739651413125336e-26
3.462973902132562965e-26
3.417608068870404591e-26
3.372640232029763145e-26
3.328068472013748688e-26
3.283891189158288474e-26
3.240106463866493711e-26
3.196712696474291077e-26
3.153708287317607251e-26
3.111090996866738548e-26
3.068859865323240860e-26
3.027012333224596758e-26
2.985546800906732918e-26
2.944461988638389192e-26
2.903755656889864190e-26
2.863426205997082869e-26
2.823472036295972480e-26
2.783891228189644234e-26
2.744682182014024235e-26
2.705842978172225413e-26
2.667371697067357832e-26
2.629267058968163637e-26
2.591526984311346877e-26
2.554149713466426498e-26
2.517133646769328889e-26
2.480476864623165835e-26
2.444177927330270886e-26
2.408234595360940933e-26
2.372645588983917260e-26
2.337408828635904205e-26
2.302522714652828157e-26
2.267985487404208062e-26
2.233795227293155415e-26
2.199950494622004055e-26
2.166449209827458606e-26
2.133289933211852331e-26
2.100470585211889855e-26
2.067989726129904728e-26
2.035845436369008735e-26
2.004035956298720818e-26
1.972559526288559923e-26
1.941414386708045280e-26
1.910598777926695832e-26
1.880111100280437971e-26
1.849949434172383194e-26
1.820112179938458178e-26
1.790597417981774134e-26
1.761403548638258026e-26
1.732528652311021064e-26
1.703970969369582480e-26
1.675729060116275823e-26
1.647800685021398271e-26
1.620184564353690822e-26
1.592878618549857813e-26
1.565881247945825347e-26
1.539190692911112943e-26
1.512805193815239257e-26
1.486722831061316073e-26
1.460942164951677230e-26
1.435461115923026776e-26
1.410278244277698550e-26
1.385391630418804337e-26
1.360799354749455919e-26
1.336499977571986560e-26
1.312491579289508332e-26
1.288772400271539892e-26
1.265340760870804337e-26
1.242194901456820611e-26
1.219332982415903791e-26
1.196753324100776831e-26
1.174454166880958676e-26
1.152433671142764546e-26
1.130690237222120975e-26
1.109222025505343327e-26
1.088027276361950546e-26
1.067104230161461719e-26
1.046451207256599371e-26
1.026066368033679152e-26
1.005948032845423442e-26
9.860943620781477489e-27
9.665036760845747404e-27
9.471741352510197801e-27
9.281041399134091154e-27
9.092917704748546737e-27
8.907353472880789789e-27
8.724331907058046984e-27
8.543833811311436162e-27
8.365843189000219795e-27
8.190341643987552957e-27
8.017312379800660889e-27
7.846737000302697228e-27
7.678598709020890084e-27
7.512879109818393096e-27
7.349561406222431502e-27
7.188628001928197612e-27
7.030061300630879429e-27
6.873842906193632027e-27
6.719956821975719316e-27
6.568384651840293499e-27
6.419108799482545450e-27
6.272112068513683226e-27
6.127376862628897700e-27
5.984885585523379030e-27
5.844620640892317370e-27
5.706564432430902879e-27
5.570699763750344330e-27
5.437008638629812544e-27
5.305473860680517731e-27
5.176077833597648611e-27
5.048802961076396058e-27
4.923632046727969565e-27
4.800546694415520618e-27
4.679530507582296660e-27
4.560565090091449177e-27
4.443633245554188380e-27
4.328717377665703707e-27
4.215800290037203931e-27
4.104863986447860592e-27
3.995890870592863846e-27
3.888863746083423185e-27
3.783765416530745947e-27
3.680577485797986490e-27
3.579282757496353586e-27
3.479864035237055293e-27
3.382303722715281766e-27
3.286583823710204546e-27
3.192687141833033122e-27
3.100596080778957294e-27
3.010293244201176167e-27
2.921761035794880256e-27
