# p
1.985892174058688852e+03
2.122681713429597494e+03
2.268881575098365829e+03
2.425136203849945105e+03
2.592133825729437831e+03
2.770608994989296662e+03
2.961345673893175444e+03
3.165180413797406800e+03
3.383004876505890479e+03
3.615770185778716950e+03
3.864490891150288007e+03
4.130246962057123710e+03
4.414188858113569040e+03
4.717541818487309683e+03
5.041608905498866989e+03
5.387775503941201350e+03
5.757513855363916264e+03
6.152387430868085175e+03
6.574055400160220415e+03
7.024276405540773339e+03
7.504911996628935412e+03
8.017931668225568501e+03
8.565416643969849247e+03
9.149563353224672028e+03
9.772687164272459995e+03
1.043722599376925427e+04
1.114574230613414511e+04
1.190092255110387487e+04
1.270558081081309683e+04
1.356266052069967009e+04
1.447523314916600248e+04
1.544649076166211853e+04
1.647973973141942770e+04
1.757839296101512446e+04
1.874596771653164251e+04
1.998605761117528164e+04
2.130230995383512709e+04
2.269842096915814909e+04
2.417809756800713149e+04
2.574502611592342873e+04
2.740284181030639593e+04
2.915507412909211780e+04
3.100509807190841821e+04
3.295607359191244905e+04
3.501086809377901227e+04
3.717200780314937583e+04
3.944159763819452928e+04
4.182115229600340535e+04
4.431166539512699092e+04
4.691336800496064825e+04
4.962503286484899581e+04
5.244654974514377682e+04
5.537452134776464663e+04
5.839612768675397820e+04
6.153652159172158281e+04
6.475710290535139939e+04
6.788285210738603200e+04
7.108807405339926481e+04
7.449647862026185612e+04
7.792553590689663542e+04
8.135737796388467541e+04
8.479659849706757814e+04
8.820646676947327796e+04
9.156106302848260384e+04
9.483133134690609586e+04
9.798235586415389844e+04
1.009766050498051918e+05
1.037739676398578158e+05
1.063295751060647017e+05
1.085942487664259534e+05
1.105299807301982219e+05
1.120667544887785043e+05
1.131356980863702338e+05
1.138731185446192394e+05
1.141536591975438496e+05
1.136917921609932673e+05
1.126302476465692744e+05
1.109031156039740890e+05
1.084104770474268298e+05
1.053868405122281256e+05
1.019323935822213243e+05
9.801442648596371873e+04
9.358360369281333988e+04
8.885580028348045016e+04
8.403745285623053496e+04
7.923228256410367612e+04
7.455645391799534264e+04
7.016791537341853837e+04
6.620718050561721611e+04
6.269470367262038781e+04
5.955970614030348952e+04
5.666752071996693849e+04
5.386937101528945641e+04
5.096985412508552690e+04
4.777478256121743470e+04
4.416829912516328477e+04
4.018744330313355022e+04
3.614399231979132310e+04
3.234624072890006573e+04
2.908951811917314990e+04
2.658126840438198633e+04
2.471275047624887156e+04
2.305042360808419835e+04
2.122984490332776113e+04
1.914969687523333050e+04
1.702834994759255278e+04
1.527194964680882913e+04
1.399294941936311261e+04
1.295523596604738123e+04
1.184424873256899627e+04
1.068373466810506216e+04
9.720004519956019067e+03
8.978203784873372570e+03
8.271278097761720346e+03
7.579079102257350314e+03
7.004937302712952260e+03
6.501768530489551267e+03
6.026298270660473463e+03
5.612785130080001181e+03
5.237943883933630786e+03
4.896342478541178934e+03
4.587912639752533323e+03
4.304196719351031788e+03
4.043739489272373248e+03
3.802166267047571637e+03
3.577246913081733510e+03
3.366416010226611434e+03
3.167690778056616182e+03
2.979497744734793287e+03
2.800515359315371370e+03
2.629643085160542341e+03
2.465998279690447362e+03
2.308977594775915350e+03
2.158134420623137885e+03
2.013121230441733360e+03
1.873677665217850517e+03
1.739658631684715147e+03
1.611081211942206664e+03
1.487991837197418135e+03
1.370436326254474125e+03
1.258456088696284723e+03
1.152128278531930391e+03
1.051571539867379670e+03
9.568558385875182921e+02
8.679973150940433015e+02
7.849635827436347881e+02
7.076993433199378387e+02
6.361200739648159015e+02
5.700906507399269003e+02
5.094325989526592480e+02
4.539332500122501983e+02
4.033614082233443696e+02
3.574658088085877807e+02
3.159754183424842608e+02
2.786066784919512997e+02
2.450704165798810266e+02
2.150790142214357559e+02
1.883481252644326105e+02
1.645996919989474918e+02
1.435653129536229073e+02
1.249886413692872651e+02
1.086270535902493748e+02
9.425348977004331630e+01
8.165718878859128438e+01
7.064386975425784954e+01
6.103518896509967107e+01
5.266833710623360076e+01
4.539621786704595507e+01
3.908658606479458797e+01
3.362101925536887137e+01
2.889359901808654385e+01
2.481006888391138432e+01
2.128715303163691175e+01
1.825148470971288361e+01
1.563857200336490472e+01
1.339173134284724753e+01
1.146137252984488519e+01
9.804292989034264494e+00
8.382917095753192882e+00
7.164601294461031777e+00
6.120984936818865130e+00
5.227523453325040315e+00
4.463022038681020653e+00
3.809196716561858764e+00
3.250283698652551845e+00
2.772696513760379844e+00
2.364753207593088380e+00
2.016419795293103778e+00
1.719083308383123398e+00
1.465348726846413596e+00
1.248869228514464913e+00
1.064212365045611453e+00
9.067309808126546855e-01
7.724511729084985179e-01
6.579812118027439372e-01
5.604247196378498996e-01
4.773028838251688888e-01
4.064952436413691306e-01
3.462127344652864425e-01
2.948796610501049908e-01
